<?xml version="1.0" encoding="UTF-8"?>
<svg width="60px" height="61px" viewBox="0 0 60 61" version="1.1" xmlns="http://www.w3.org/2000/svg" xmlns:xlink="http://www.w3.org/1999/xlink">
    <title>EBD34825-D337-419D-9A33-1D464043F840</title>
    <g id="Page-1" stroke="none" stroke-width="1" fill="none" fill-rule="evenodd">
        <g id="Six-Sigma-GreenBelt-Angielski" transform="translate(-768.000000, -1486.000000)" fill-rule="nonzero">
            <g id="Szkolenie-info" transform="translate(0.000000, 1417.500000)">
                <g id="Group-20" transform="translate(737.000000, 69.000000)">
                    <g id="iconMinutes" transform="translate(31.000000, 0.000000)">
                        <circle id="Oval" fill="#DF8D43" cx="30" cy="30" r="25"></circle>
                        <path d="M17.979183,48 C17.7641936,48 17.5546841,47.9331573 17.3807301,47.8094496 C13.395717,44.9702837 10.4706129,40.9322009 9.05234584,36.3126173 C8.87469608,35.7897279 9.16385484,35.2250622 9.69820597,35.051223 C10.2325571,34.8773838 10.8096003,35.1603402 10.98725,35.6832296 C10.9941317,35.7033071 11.0002488,35.7236341 11.0057287,35.7440858 C12.2961745,39.9437866 14.9563332,43.6146122 18.5796749,46.1953887 C19.0351413,46.5192484 19.1362003,47.1431491 18.8052416,47.5888459 C18.6130638,47.8474847 18.3059362,48.0003734 17.979183,48 L17.979183,48 Z" id="Path" fill="#3D3D3D"></path>
                        <g id="Group" transform="translate(8.000000, 8.000000)" fill="#F4F4E6">
                            <path d="M22,6 C21.44775,6 21,5.55225 21,5 L21,1 C21,0.44775 21.44775,0 22,0 C22.55225,0 23,0.44775 23,1 L23,5 C23,5.55225 22.55225,6 22,6 Z" id="Path"></path>
                            <path d="M5,23 L1,23 C0.44775,23 0,22.55225 0,22 C0,21.44775 0.44775,21 1,21 L5,21 C5.55225,21 6,21.44775 6,22 C6,22.55225 5.55225,23 5,23 Z" id="Path"></path>
                            <path d="M43,23 L39,23 C38.44775,23 38,22.55225 38,22 C38,21.44775 38.44775,21 39,21 L43,21 C43.55225,21 44,21.44775 44,22 C44,22.55225 43.55225,23 43,23 Z" id="Path"></path>
                            <path d="M22,44 C21.44775,44 21,43.55225 21,43 L21,39 C21,38.44775 21.44775,38 22,38 C22.55225,38 23,38.44775 23,39 L23,43 C23,43.55225 22.55225,44 22,44 Z" id="Path"></path>
                        </g>
                        <path d="M29.9947801,31 C29.7294043,31 29.4750336,30.8944188 29.2874446,30.7067744 L15.2808012,16.6959926 C14.8969941,16.2984367 14.9079993,15.6648241 15.3054379,15.2809037 C15.6931217,14.9063654 16.3077883,14.9063654 16.6954722,15.2809037 L29.9947801,28.5841409 L39.29219,19.2839842 C39.6830003,18.8931834 40.3164258,18.8933085 40.7071111,19.2842344 C40.894575,19.4718788 41,19.7263246 41,19.9915286 L41,23.9946091 C41,24.5472844 40.5520375,24.9953793 39.9995255,24.9953793 C39.4470134,24.9953793 38.9990509,24.5472844 38.9990509,23.9946091 L38.9990509,22.4073877 L30.7021156,30.7067744 C30.5145267,30.8944188 30.260156,31 29.9947801,31 L29.9947801,31 Z" id="Path" fill="#3D3D3D"></path>
                        <circle id="Oval" fill="#DF8D43" cx="30" cy="30" r="5"></circle>
                        <path d="M11.0057373,35.7439284 C10.8623667,35.211074 10.3048146,34.8928329 9.76026137,35.0331234 C9.21570816,35.1734138 8.89048003,35.7189878 9.03385058,36.2518422 C9.03933052,36.2722934 9.04557511,36.29262 9.05232945,36.3126971 C10.4706147,40.9321815 13.3957562,44.9701776 17.3808203,47.8092825 C17.8362926,48.1332599 18.4740048,48.0344954 18.8050952,47.5888082 C19.1361856,47.143121 19.0352528,46.519109 18.5797805,46.1951315 L18.5797805,46.1951315 C14.9563925,43.6142858 12.2961997,39.943539 11.0057373,35.7439284 L11.0057373,35.7439284 Z" id="Path" fill="#3D3D3D"></path>
                        <path d="M30,14 C30.55225,14 31,13.55225 31,13 L31,9 C31,8.44775 30.55225,8 30,8 C29.44775,8 29,8.44775 29,9 L29,13 C29,13.55225 29.44775,14 30,14 Z" id="Path" fill="#3D3D3D"></path>
                        <path d="M13,31 C13.55225,31 14,30.55225 14,30 C14,29.44775 13.55225,29 13,29 L9,29 C8.44775,29 8,29.44775 8,30 C8,30.55225 8.44775,31 9,31 L13,31 Z" id="Path" fill="#3D3D3D"></path>
                        <path d="M46,30 C46,30.55225 46.44775,31 47,31 L51,31 C51.55225,31 52,30.55225 52,30 C52,29.44775 51.55225,29 51,29 L47,29 C46.44775,29 46,29.44775 46,30 Z" id="Path" fill="#3D3D3D"></path>
                        <path d="M30,46 C29.44775,46 29,46.44775 29,47 L29,51 C29,51.55225 29.44775,52 30,52 C30.55225,52 31,51.55225 31,51 L31,47 C31,46.44775 30.55225,46 30,46 Z" id="Path" fill="#3D3D3D"></path>
                        <path d="M30,0 C13.4315,0 0,13.4315 0,30 C0,46.5685 13.4315,60 30,60 C46.5685,60 60,46.5685 60,30 C59.98125,13.43925 46.56075,0.01875 30,0 Z M30,58 C14.536,58 2,45.464 2,30 C2,14.536 14.536,2 30,2 C45.464,2 58,14.536 58,30 C57.982875,45.456875 45.456875,57.982875 30,58 Z" id="Shape" fill="#3D3D3D"></path>
                        <path d="M30,4 C15.640625,4 4,15.640625 4,30 C4,44.359375 15.640625,56 30,56 C44.359375,56 56,44.359375 56,30 C55.984,15.64725 44.35275,4.016 30,4 Z M30,54 C16.745125,54 6,43.254875 6,30 C6,16.745125 16.745125,6 30,6 C43.254875,6 54,16.745125 54,30 C53.984625,43.248375 43.248375,53.984625 30,54 Z" id="Shape" fill="#3D3D3D"></path>
                        <path d="M40.3827076,19.0634974 C40.0087806,18.9086289 39.5783267,18.9943753 39.2921912,19.2804883 L33.4674329,25.102244 C31.3911996,23.6155564 28.5983771,23.6155564 26.5221439,25.102244 L16.6954904,15.2806562 C16.2980522,14.8970473 15.6646272,14.9080468 15.2808205,15.3052802 C14.9063932,15.6927639 14.9063932,16.3071131 15.2808205,16.6945969 L25.107474,26.5161846 C23.1825624,29.2139464 23.8101096,32.9606641 26.5093878,34.8845834 C29.208541,36.8085026 32.9571912,36.181279 34.8821028,33.4833922 C36.3694321,31.3988547 36.3694321,28.6005971 34.8821028,26.5160596 L38.9990524,22.4012323 L38.9990524,23.9872908 C38.9990524,24.5395176 39.4470145,24.9872488 39.9995262,24.9872488 C40.5520378,24.9872488 41,24.5395176 41,23.9872908 L41,19.9874586 C41,19.5831006 40.7565096,19.2183659 40.3827076,19.0634974 Z M29.9947884,33.9868711 C27.7846167,33.9868711 25.9928932,32.1960712 25.9928932,29.9870389 C25.9928932,27.7780067 27.7846167,25.9872068 29.9947884,25.9872068 C32.20496,25.9872068 33.9966835,27.7780067 33.9966835,29.9870389 C33.9966835,32.1960712 32.20496,33.9868711 29.9947884,33.9868711 Z" id="Shape" fill="#3D3D3D"></path>
                    </g>
                </g>
            </g>
        </g>
    </g>
</svg>