<svg xmlns="http://www.w3.org/2000/svg" width="70" height="80" viewBox="0 0 70 80">
    <g fill="none">
        <path fill="#DF8D43" d="M12.021 38.667L2.688 38.667 2.688 1.333 66.688 1.333 66.688 38.667 22.688 38.667"/>
        <g transform="translate(55.938 47.969)">
            <circle cx="6.75" cy="6.698" r="5.333" fill="#DF8D43"/>
            <path fill="#FFD782" d="M6.75 13.365c-3.681 0-6.667-2.986-6.667-6.667C.083 3.016 3.07.03 6.75.03c3.681 0 6.667 2.985 6.667 6.667-.004 3.68-2.987 6.663-6.667 6.667zm0-10.667c-2.21 0-4 1.79-4 4s1.79 4 4 4 4-1.79 4-4-1.79-4-4-4z"/>
        </g>
        <g>
            <path fill="#DF8D43" d="M1.417 1.427H12.084V14.76H1.417z" transform="translate(55.938 63.906)"/>
            <path fill="#32B1CC" d="M12.083 16.094H1.417c-.736 0-1.334-.598-1.334-1.334V1.427C.083.691.681.094 1.417.094h10.666c.736 0 1.334.597 1.334 1.333V14.76c0 .736-.598 1.334-1.334 1.334zM2.75 13.427h8V2.76h-8v10.667z" transform="translate(55.938 63.906)"/>
        </g>
        <g transform="translate(0 47.969)">
            <circle cx="6.688" cy="6.698" r="5.333" fill="#DF8D43"/>
            <path fill="#FFD782" d="M6.688 13.365C3.006 13.365.02 10.379.02 6.698.02 3.016 3.006.03 6.688.03c3.68 0 6.666 2.985 6.666 6.667-.004 3.68-2.986 6.663-6.666 6.667zm0-10.667c-2.21 0-4 1.79-4 4s1.79 4 4 4c2.209 0 4-1.79 4-4s-1.791-4-4-4z"/>
        </g>
        <g>
            <path fill="#DF8D43" d="M1.354 1.427H12.021V14.76H1.354z" transform="translate(0 63.906)"/>
            <path fill="#32B1CC" d="M12.02 16.094H1.355c-.736 0-1.333-.598-1.333-1.334V1.427C.02.691.618.094 1.354.094h10.667c.736 0 1.333.597 1.333 1.333V14.76c0 .736-.597 1.334-1.333 1.334zm-9.332-2.667h8V2.76h-8v10.667z" transform="translate(0 63.906)"/>
        </g>
        <g transform="translate(27.969 47.969)">
            <circle cx="6.719" cy="6.698" r="5.333" fill="#DF8D43"/>
            <path fill="#FFD782" d="M6.719 13.365c-3.682 0-6.667-2.986-6.667-6.667C.052 3.016 3.037.03 6.719.03c3.681 0 6.666 2.985 6.666 6.667-.004 3.68-2.986 6.663-6.666 6.667zm0-10.667c-2.21 0-4 1.79-4 4s1.79 4 4 4 4-1.79 4-4-1.79-4-4-4z"/>
        </g>
        <g>
            <path fill="#DF8D43" d="M1.385 1.427H12.052V14.76H1.385z" transform="translate(27.969 63.906)"/>
            <path fill="#32B1CC" d="M12.052 16.094H1.385c-.736 0-1.333-.598-1.333-1.334V1.427C.052.691.649.094 1.385.094h10.667c.736 0 1.333.597 1.333 1.333V14.76c0 .736-.597 1.334-1.333 1.334zm-9.333-2.667h8V2.76h-8v10.667z" transform="translate(27.969 63.906)"/>
        </g>
        <g fill="#FFF">
            <path d="M21.427 8.02h-20C.691 8.02.094 7.424.094 6.689c0-.736.597-1.334 1.333-1.334h20c.736 0 1.333.598 1.333 1.333 0 .736-.597 1.334-1.333 1.334zM21.427 2.688h-20C.691 2.688.094 2.09.094 1.353.094.618.69.021 1.427.021h20c.736 0 1.333.597 1.333 1.333s-.597 1.333-1.333 1.333zM21.427 13.354h-20c-.736 0-1.333-.597-1.333-1.333s.597-1.333 1.333-1.333h20c.736 0 1.333.597 1.333 1.333s-.597 1.333-1.333 1.333zM21.427 18.688h-20c-.736 0-1.333-.598-1.333-1.334 0-.736.597-1.333 1.333-1.333h20c.736 0 1.333.597 1.333 1.333s-.597 1.334-1.333 1.334zM21.427 24.02h-20c-.736 0-1.333-.597-1.333-1.332 0-.736.597-1.334 1.333-1.334h20c.736 0 1.333.598 1.333 1.334 0 .735-.597 1.333-1.333 1.333z" transform="translate(38.594 5.313)"/>
        </g>
        <path fill="#DF8D43" d="M52.021 33.333H60.021V38.666H52.021z"/>
        <g transform="translate(10.625 13.281)">
            <circle cx="6.729" cy="6.719" r="5.333" fill="#497D8B"/>
            <path fill="#FFD782" d="M6.73 13.385C3.047 13.385.061 10.4.061 6.72.063 3.037 3.049.052 6.73.052c3.682 0 6.667 2.985 6.667 6.667-.004 3.68-2.987 6.662-6.667 6.666zm0-10.666c-2.21 0-4 1.79-4 4s1.79 4 4 4c2.209 0 4-1.79 4-4s-1.792-4-4-4zM17.396 21.385c-.207 0-.41-.048-.596-.14l-5.333-2.666 1.192-2.387 4.161 2.081 3.56-6.837 2.365 1.232-4.166 8c-.23.441-.686.717-1.183.717z"/>
        </g>
        <g>
            <path fill="#497D8B" d="M1.396 1.448H12.062999999999999V14.781H1.396z" transform="translate(10.625 29.219)"/>
            <path fill="#238892" d="M12.063 16.115H1.396c-.736 0-1.333-.598-1.333-1.334V1.448C.063.712.66.115 1.395.115h10.666c.736 0 1.334.597 1.334 1.333v13.333c0 .736-.598 1.334-1.334 1.334zm-9.334-2.667h8V2.781h-8v10.667z" transform="translate(10.625 29.219)"/>
        </g>
        <path fill="#3D3D3D" d="M62.688 48c-3.682 0-6.667 2.985-6.667 6.667 0 3.681 2.985 6.666 6.666 6.666 3.682 0 6.667-2.985 6.667-6.666-.004-3.68-2.986-6.663-6.666-6.667zm0 10.667c-2.21 0-4-1.79-4-4s1.79-4 4-4c2.209 0 4 1.79 4 4 0 2.209-1.791 4-4 4zM57.354 80h10.667c.736 0 1.333-.597 1.333-1.333V65.333c0-.736-.597-1.333-1.333-1.333H57.354c-.736 0-1.333.597-1.333 1.333v13.334c0 .736.597 1.333 1.333 1.333zm1.334-13.333h8v10.666h-8V66.667zM6.688 61.333c3.68 0 6.666-2.985 6.666-6.666 0-3.682-2.985-6.667-6.666-6.667C3.006 48 .02 50.985.02 54.667c.004 3.68 2.986 6.662 6.667 6.666zm0-10.666c2.209 0 4 1.79 4 4s-1.791 4-4 4c-2.21 0-4-1.79-4-4s1.79-4 4-4zM.02 78.667C.02 79.403.619 80 1.355 80h10.667c.736 0 1.333-.597 1.333-1.333V65.333c0-.736-.597-1.333-1.333-1.333H1.354c-.736 0-1.333.597-1.333 1.333v13.334zm2.667-12h8v10.666h-8V66.667zM34.688 48c-3.682 0-6.667 2.985-6.667 6.667 0 3.681 2.985 6.666 6.666 6.666 3.682 0 6.667-2.985 6.667-6.666-.004-3.68-2.986-6.663-6.666-6.667zm0 10.667c-2.21 0-4-1.79-4-4s1.79-4 4-4c2.209 0 4 1.79 4 4 0 2.209-1.791 4-4 4zM29.354 64c-.736 0-1.333.597-1.333 1.333v13.334c0 .736.597 1.333 1.333 1.333h10.667c.736 0 1.333-.597 1.333-1.333V65.333c0-.736-.597-1.333-1.333-1.333H29.354zm9.334 13.333h-8V66.667h8v10.666zM17.354 26.667c3.682 0 6.667-2.986 6.667-6.667 0-3.681-2.985-6.667-6.667-6.667-3.681 0-6.666 2.986-6.666 6.667.004 3.68 2.986 6.663 6.666 6.667zm0-10.667c2.21 0 4 1.79 4 4s-1.79 4-4 4-4-1.79-4-4 1.79-4 4-4zM40.02 13.333h20c.737 0 1.334-.597 1.334-1.333s-.597-1.333-1.333-1.333h-20c-.736 0-1.334.597-1.334 1.333s.598 1.333 1.334 1.333zM40.02 8h20c.737 0 1.334-.597 1.334-1.333s-.597-1.334-1.333-1.334h-20c-.736 0-1.334.598-1.334 1.334 0 .736.598 1.333 1.334 1.333zM40.02 18.667h20c.737 0 1.334-.598 1.334-1.334 0-.735-.597-1.333-1.333-1.333h-20c-.736 0-1.334.598-1.334 1.333 0 .736.598 1.334 1.334 1.334zM40.02 24h20c.737 0 1.334-.597 1.334-1.333s-.597-1.334-1.333-1.334h-20c-.736 0-1.334.598-1.334 1.334 0 .736.598 1.333 1.334 1.333zM40.02 29.333h20c.737 0 1.334-.597 1.334-1.333s-.597-1.333-1.333-1.333h-20c-.736 0-1.334.597-1.334 1.333s.598 1.333 1.334 1.333z"/>
        <path fill="#3D3D3D" d="M68.02 38.667V1.333C68.02.597 67.424 0 66.689 0h-64c-.736 0-1.334.597-1.334 1.333v37.334c0 .736.598 1.333 1.333 1.333h8v4c0 .736.598 1.333 1.334 1.333h10.666c.736 0 1.334-.597 1.334-1.333v-4h42.666c.736 0 1.334-.597 1.334-1.333zm-46.666 4h-8V32h8v10.667zm37.334-5.334h-5.334v-2.666h5.334v2.666zm6.666 0h-4v-4c0-.736-.597-1.333-1.333-1.333h-8c-.736 0-1.333.597-1.333 1.333v4H24.02v-4.51l3.404 1.71c.185.09.39.135.596.134.497 0 .953-.276 1.182-.718l4.167-8-2.365-1.232-3.56 6.838-4.162-2.082v.013c-.184-.097-.388-.15-.596-.153H12.021c-.736 0-1.334.597-1.334 1.333v6.667H4.021V2.667h61.333v34.666z"/>
    </g>
</svg>
